Peter    Bladon    598272651
Andrew    Sundhu    857695241
Sean    Hawley    931003752
Martin    Testrow    212860499
Louise    Curtis    927185887
Alexander  Oddie    157020783
John    Colman    478545487
William    Richardson  689461958
Reece    Jenkins    872692036
Brian    Wright    689846491
