  David  Williams  836820580
  Elanor  Hillier  982641070
  James  Daly  471596422
  Peter  Cooke  868077638
  Lee  Conneely  267107150
  Alexander  Rodriguez  845994444
  Sam  McCulloch  447260963
  Adam  Jeffery  464098025
  Michael  Kemp  288036744
  John  Tongue  568224127
  Tammy  Rojas  386394848
  Brian  Yates  979207738
  James  Forrest  412955106
  Derrick  Fraser  833277381
  John  Keenan  869972837
  Rebecca  Redfearn  325611132
  Kevin  Newcomb  791170994
  James  Bakht  391778313
  Jonathan  Benitez  584017456
  Adam  Adams  547019867
  Neill  Horsley  688555558
  Michael  Mattocks  294875942
  James  Ashmore  475441755
  Paul  Challenger  124445326
  James  Murdoch  689626757
  Mark  Woodward  352803124
  Luke  Raath  927570420
  Ashworth  Redfearn  149659718
  Oliver  Fridman  380187383
  Neal  Pelling  615768913
  James  Spiller  139579454
  Michelle  Leigh  487609484
  Georges  Suter  819983519
  Anthony  Procter  423776970
  Christopher  Harrison  544987334
  James  Briggs  300314340
  Lee  Lovatt  864809105
  Steven  Pepperell  622360911
  Mark  Parkes  852201909
  James  McCulloch  653480635
  Derrick  Jenkins  247441022
  Rebecca  Haworth  590581987
  Philip  McKinlay  342887661
  Tomos  Keenan  178115176
  James  Tompsett  276720480
  Zhuojia  Chen  179241309
  James  Delve  211844233
  Jeremy  Deeney  408999908
  David  Colman  664027832
  David  Waller  905047760
  Joshua  Cooke  682622760
  Paul  Richardson  971517074
  Curtis  Redfearn  436933499
  Kevin  Tillyard  298144474
  Peter  Adams  283559678
  Daniel  Almond  339262062
  Sarah  Dunning  548915066
  Daniel  Rodriguez  750245673
  Alexander  Hargreaves  518866542
  Andrew  Rodriguez  333988463
  Rebecca  Penny  844923245
  James  Higham  659276100
  James  Craiggs  718384349
  John  Parkinson  389635913
  James  Squires  691686757
  John  Poole  918341623
  Susan  McGregor  701025421
  Sam  Rojas  452671895
  Matthew  Sharp  432868434
  Simon  Lovatt  845417644
  Anthony  Mueller  536060670
  Richard  Leigh  340360728
  Elanor  Poole  377687917
  Benjamin  Paget  400650043
  David  Paska  636643573
  Michael  Tongue  928998686
  Jane  Brown  782711263
  Robindronath  Brown  788396861
  Thomas  Al-Kamiyani  469838556
  Alexander  Packer  393700979
  Kirsty  Brown  436301766
  Marie  Williams  490493483
  Patrick  Fernandez  917792290
  Neill  Curtis  772136600
  Ella  Newcomb  905047760
  Jonthan  Camm  428061769
  Tomos  Leigh  473986022
  Katie  Mughal  973439740
  David  Penny  551249732
  Sean  Housley  898373362
  Stephen  Wright  209564500
  Stephen  Tinkler  504803612
  Hitchman  Ellis  681276893
  Peter  Hawley  383758048
  Mary  Parker  493569749
  Sam  Mansell  837095247
  Thomas  Pervez  733820611
  George  Rawlinson  479699087
  Rose  Williams  801498458
  James  Johnson  781749930
